…
``` r
fc <- fit %>%
  forecast(h = "5 years")
fc
#> # A fable: 80 x 7 [1Q]
#> # Key:     Region, State, Purpose, .model [4]
#>    Region State           Purpose  .model Quarter          Trips .mean
#>    <chr>  <chr>           <chr>    <chr>    <qtr>         <dist> <dbl>
#>  1 Sydney New South Wales Business caret  2018 Q1 N(699, 172029)  699.
#>  2 Sydney New South Wales Business caret  2018 Q2 N(815, 172029)  815.
#>  3 Sydney New South Wales Business caret  2018 Q3 N(855, 172029)  855.
#>  4 Sydney New South Wales Business caret  2018 Q4 N(849, 172029)  849.
#>  5 Sydney New South Wales Business caret  2019 Q1 N(725, 172029)  725.
#>  6 Sydney New South Wales Business caret  2019 Q2 N(809, 172029)  809.
#>  7 Sydney New South Wales Business caret  2019 Q3 N(846, 172029)  846.
#>  8 Sydney New South Wales Business caret  2019 Q4 N(837, 172029)  837.
#>  9 Sydney New South Wales Business caret  2020 Q1 N(723, 172029)  723.
#> 10 Sydney New South Wales Business caret  2020 Q2 N(809, 172029)  809.
#> # … with 70 more rows
```

``` r
fc %>%
  hilo(level = c(80, 95))
#> # A tsibble: 80 x 9 [1Q]
#> # Key:       Region, State, Purpose, .model [4]
#>    Region State           Purpose  .model Quarter          Trips .mean
#>    <chr>  <chr>           <chr>    <chr>    <qtr>         <dist> <dbl>
#>  1 Sydney New South Wales Business caret  2018 Q1 N(699, 172029)  699.
#>  2 Sydney New South Wales Business caret  2018 Q2 N(815, 172029)  815.
#>  3 Sydney New South Wales Business caret  2018 Q3 N(855, 172029)  855.
#>  4 Sydney New South Wales Business caret  2018 Q4 N(849, 172029)  849.
#>  5 Sydney New South Wales Business caret  2019 Q1 N(725, 172029)  725.
#>  6 Sydney New South Wales Business caret  2019 Q2 N(809, 172029)  809.
#>  7 Sydney New South Wales Business caret  2019 Q3 N(846, 172029)  846.
#>  8 Sydney New South Wales Business caret  2019 Q4 N(837, 172029)  837.
#>  9 Sydney New South Wales Business caret  2020 Q1 N(723, 172029)  723.
#> 10 Sydney New South Wales Business caret  2020 Q2 N(809, 172029)  809.
#> # … with 70 more rows, and 2 more variables: `80%` <hilo>, `95%` <hilo>
```
…
